Lab 04/simulation/qsim/Lab04.msim.vcd
$comment
	File created using the following command:
		vcd file Lab04.msim.vcd -direction
$end
$date
	Mon Nov 30 16:03:14 2020
$end
$version
	ModelSim Version 2020.1
$end
$timescale
	1ps
$end

$scope module Lab04_vlg_vec_tst $end
$var reg 1 ! A0 $end
$var reg 1 " A1 $end
$var reg 1 # A2 $end
$var reg 1 $ A3 $end
$var reg 1 % B0 $end
$var reg 1 & B1 $end
$var reg 1 ' B2 $end
$var reg 1 ( B3 $end
$var reg 1 ) M $end
$var wire 1 * COut $end
$var wire 1 + N $end
$var wire 1 , S0Out $end
$var wire 1 - S1Out $end
$var wire 1 . S2Out $end
$var wire 1 / S3Out $end

$scope module i1 $end
$var wire 1 0 gnd $end
$var wire 1 1 vcc $end
$var wire 1 2 unknown $end
$var tri1 1 3 devclrn $end
$var tri1 1 4 devpor $end
$var tri1 1 5 devoe $end
$var wire 1 6 ~QUARTUS_CREATED_GND~I_combout $end
$var wire 1 7 B2~input_o $end
$var wire 1 8 A1~input_o $end
$var wire 1 9 A0~input_o $end
$var wire 1 : B1~input_o $end
$var wire 1 ; B0~input_o $end
$var wire 1 < M~input_o $end
$var wire 1 = inst|inst7|inst5~combout $end
$var wire 1 > A3~input_o $end
$var wire 1 ? A2~input_o $end
$var wire 1 @ B3~input_o $end
$var wire 1 A inst|inst9|inst5~combout $end
$var wire 1 B inst|inst6|inst~combout $end
$var wire 1 C inst|inst7|inst2~combout $end
$var wire 1 D inst4|inst7|inst2~combout $end
$var wire 1 E inst|inst8|inst2~combout $end
$var wire 1 F inst4|inst8|inst2~combout $end
$var wire 1 G inst4|inst9|inst2~0_combout $end
$var wire 1 H inst4|inst9|inst2~combout $end
$upscope $end
$upscope $end
$enddefinitions $end
#0
$dumpvars
1!
0"
1#
0$
0%
1&
1'
0(
0)
0*
1+
0,
0-
0.
1/
00
11
x2
13
14
15
06
17
08
19
1:
0;
0<
0=
0>
1?
0@
0A
1B
1C
0D
0E
1F
0G
0H
$end
#10000
1$
0#
0!
1(
0'
0&
1%
1>
0?
09
1@
07
0:
1;
0C
1A
0+
1*
1H
0F
1.
0/
#20000
0$
1#
1'
0%
0>
1?
17
0;
0B
1,
1F
1D
1-
0.
#30000
1"
1!
0#
0'
18
19
0?
07
1C
1B
0A
1+
0*
0,
0H
0D
0-
1/
#40000
1&
1$
1%
1:
1>
1;
0B
1=
1A
0+
1*
1,
1E
1H
0F
1.
0/
0H
1F
0.
1/
#50000
0(
0"
0!
0@
08
09
1B
0=
0A
1+
0*
0,
0E
0F
1.
1F
0.
#60000
1#
1'
0&
0%
1?
17
0:
0;
0C
0B
1A
0+
1*
1,
1H
1D
1-
0/
#70000
1(
1!
0#
0'
1@
19
0?
07
1B
0,
0F
0D
0-
1.
#80000
0$
1"
1%
0(
0!
1#
1'
0>
18
1;
0@
09
1?
17
1C
0A
1+
0*
0H
1F
0.
1/
#90000
1)
1&
0"
0%
1!
1<
1:
08
0;
19
1E
0F
1.
#100000
1$
1(
0#
0'
0&
1%
0!
1>
1@
0?
07
0:
1;
09
#110000
0$
1#
1'
0%
0>
1?
17
0;
0C
0B
1=
1G
1,
1H
0G
0E
1F
0.
0/
0F
1.
#120000
1"
1!
0#
0'
18
19
0?
07
1C
1B
0,
0H
1F
0.
1/
#130000
1&
1$
1%
1:
1>
1;
0C
0B
1A
0+
1*
1,
1H
1D
1-
0/
#140000
0(
0"
0!
0@
08
09
1B
0=
1G
0,
0H
0G
1E
0F
0D
0-
1.
1/
1F
0.
#150000
1#
1'
0&
0%
1?
17
0:
0;
0B
1=
1,
1G
0E
1H
0F
1D
1-
1.
0/
0H
1F
0.
1/
#160000
1(
1!
0#
0'
1@
19
0?
07
0G
1B
0,
1H
0F
0D
0-
1.
0/
#170000
0$
1"
1%
0(
0!
1#
1'
0>
18
1;
0@
09
1?
17
