Lab 03/simulation/qsim/Lab3.msim.vcd
$comment
	File created using the following command:
		vcd file Lab3.msim.vcd -direction
$end
$date
	Tue Nov 17 11:55:25 2020
$end
$version
	ModelSim Version 2020.1
$end
$timescale
	1ps
$end

$scope module Lab3_vlg_vec_tst $end
$var reg 1 ! a $end
$var reg 1 " b $end
$var reg 1 # c $end
$var reg 1 $ d $end
$var wire 1 % pin_name1 $end

$scope module i1 $end
$var wire 1 & gnd $end
$var wire 1 ' vcc $end
$var wire 1 ( unknown $end
$var tri1 1 ) devclrn $end
$var tri1 1 * devpor $end
$var tri1 1 + devoe $end
$var wire 1 , ~QUARTUS_CREATED_GND~I_combout $end
$var wire 1 - c~input_o $end
$var wire 1 . b~input_o $end
$var wire 1 / a~input_o $end
$var wire 1 0 d~input_o $end
$var wire 1 1 inst|6~0_combout $end
$upscope $end
$upscope $end
$enddefinitions $end
#0
$dumpvars
0!
0"
0#
0$
1%
0&
1'
x(
1)
1*
1+
0,
0-
0.
0/
00
11
$end
#100000
1$
10
#200000
1#
0$
1-
00
#300000
1$
10
01
0%
#400000
1"
0#
0$
1.
0-
00
11
1%
#500000
1$
10
01
0%
#600000
1#
0$
1-
00
#700000
1$
10
#800000
1!
0"
0#
0$
1/
0.
0-
00
#900000
1$
10
#1000000
1#
0$
1-
00
11
1%
#1100000
1$
10
01
0%
#1200000
1"
0#
0$
1.
0-
00
11
1%
#1300000
1$
10
#1400000
1#
0$
1-
00
#1500000
1$
10
01
0%
